{
    "rulesDirectory": [
      "node_modules/codelyzer"
    ],
    "rules": {
        "max-file-line-count": [
            true,
            {
                "ignore-pattern": "^import |^export {(.*?)}"
            }
        ],
        "arrow-return-shorthand": true,
        "callable-types": true,
        "class-name": true,
        "comment-format": [
            true,
            "check-space"
        ],
        "curly": true,
        "deprecation": {
            "severity": "warn"
        },
        "eofline": true,
        "forin": true,
        "import-blacklist": [
            true,
            "rxjs/Rx"
        ],
        "import-spacing": true,
        "interface-over-type-literal": true,
        "label-position": true,
        "member-ordering": [
            true,
            {
                "order": [
                "static-field",
                "instance-field",
                "static-method",
                "instance-method"
                ]
            }
        ],
        "prefer-readonly": true,
        "member-access": true,
        "space-before-function-paren": true,
        "typedef": [true, "call-signature"],
        "no-arg": true,
        "no-bitwise": true,
        "no-console": false,
        "no-construct": true,
        "no-debugger": true,
        "no-duplicate-super": true,
        "no-empty": false,
        "no-empty-interface": false,
        "no-eval": false,
        "no-inferrable-types": false,
        "no-misused-new": true,
        "no-non-null-assertion": true,
        "no-shadowed-variable": true,
        "no-string-literal": false,
        "no-string-throw": true,
        "no-switch-case-fall-through": true,
        "no-trailing-whitespace": true,
        "no-unnecessary-initializer": true,
        "no-unused-expression": true,
        "no-use-before-declare": true,
        "no-var-keyword": true,
        "object-literal-sort-keys": false,
        "one-line": [
            true,
            "check-open-brace",
            "check-catch",
            "check-else",
            "check-whitespace"
        ],
        "prefer-const": true,
        "quotemark": false,
        "radix": true,
        "semicolon": [
            true,
            "always"
        ],
        "triple-equals": [
            true,
            "allow-null-check"
        ],
        "typedef-whitespace": [
            true,
            {
            "call-signature": "nospace",
            "index-signature": "nospace",
            "parameter": "nospace",
            "property-declaration": "nospace",
            "variable-declaration": "nospace"
            }
        ],
        "unified-signatures": true,
        "variable-name": false,
        "whitespace": [
            true,
            "check-branch",
            "check-decl",
            "check-operator",
            "check-separator",
            "check-type"
        ],
        "directive-selector": false,
        "component-selector": false,
        "no-output-on-prefix": true,
        "use-input-property-decorator": true,
        "use-output-property-decorator": true,
        "use-host-property-decorator": true,
        "no-input-rename": false,
        "no-output-rename": true,
        "use-life-cycle-interface": true,
        "use-pipe-transform-interface": true,
        "component-class-suffix": true,
        "directive-class-suffix": true
    }
}